{
  "connection": "default",
  "collectionName": "Task",
  "info": {
    "name": "task",
    "description": ""
  },
  "options": {
    "timestamps": [
      "createdAt",
      "updatedAt"
    ]
  },
  "attributes": {
    "name": {
      "type": "string",
      "required": true
    },
    "description": {
      "type": "text"
    },
    "done": {
      "type": "boolean"
    },
    "created_at": {
      "type": "date",
      "default": "2019-05-26T00:00:00.000Z"
    },
    "done_at": {
      "type": "date"
    },
    "last_update_at": {
      "type": "date",
      "required": true
    },
    "data": {
      "type": "json"
    },
    "author": {
      "model": "user",
      "plugin": "users-permissions"
    }
  }
}