{
  "routes": [
    {
      "method": "GET",
      "path": "/task",
      "handler": "Task.find",
      "config": {
        "policies": []
      }
    },
    {
      "method": "GET",
      "path": "/task/count",
      "handler": "Task.count",
      "config": {
        "policies": []
      }
    },
    {
      "method": "GET",
      "path": "/task/:_id",
      "handler": "Task.findOne",
      "config": {
        "policies": []
      }
    },
    {
      "method": "POST",
      "path": "/task",
      "handler": "Task.create",
      "config": {
        "policies": []
      }
    },
    {
      "method": "PUT",
      "path": "/task/:_id",
      "handler": "Task.update",
      "config": {
        "policies": []
      }
    },
    {
      "method": "DELETE",
      "path": "/task/:_id",
      "handler": "Task.delete",
      "config": {
        "policies": []
      }
    }
  ]
}
